tipo,ambiente,edad,hijos
perro,terrestre,2,3
gato,terrestre,1,2
perro,terrestre,4,6
lloica,aereo,3,10
tiburon,acuatico,12,4
delfín,acuatico,5,2
perro,terrestre,8,5
gato,terrestre,4,2
gaviota,aereo,1,2
halcón,aereo,6,10
puma,terrestre,4,2
elefante,terrestre,22,5
lloica,aereo,3,10
lloica,aereo,2,5
lloica,aereo,1,2
lloica,aereo,4,22
puma,terrestre,4,2
puma,terrestre,4,2
puma,terrestre,4,2
puma,terrestre,4,2
puma,terrestre,5,3
puma,terrestre,6,5
puma,terrestre,2,1
perro,terrestre,3,3
perro,terrestre,6,5
perro,terrestre,8,3
perro,terrestre,1,0
perro,terrestre,2,1
delfín,acuatico,1,0
delfín,acuatico,2,1
delfín,acuatico,3,2
delfín,acuatico,12,8